module gitlab.com/z0mbie42/rz-go/benchmarks

require (
	gitlab.com/z0mbie42/rz-go/v2 v2.4.2
	github.com/pkg/errors v0.8.1 // indirect
	github.com/rs/zerolog v1.11.0
	github.com/sirupsen/logrus v1.3.0
	go.uber.org/atomic v1.3.2 // indirect
	go.uber.org/multierr v1.1.0 // indirect
	go.uber.org/zap v1.9.1
	golang.org/x/crypto v0.0.0-20190131182504-b8fe1690c613 // indirect
)
